{
  "count": 318,
  "next": "https://kf.kobotoolbox.org/api/v2/assets/a3kVqAFEJwnHFcFc7PpWj4/data/?limit=5&sort=%7B%22_submission_time%22%3A+-1%7D&start=5",
  "previous": null,
  "results": [
    {
      "_id": 709547383,
      "formhub/uuid": "5341d22cd4644be5b131cc5335a68982",
      "start": "2026-03-13T14:58:46.280+01:00",
      "end": "2026-03-13T15:27:36.398+01:00",
      "username": "gwennlbh",
      "Bonjour_Pour_r_ali_tualiser_votre_relev": "2026-03-13T14:58:00.000+01:00",
      "Code_projet": "entrainement",
      "Prenez_une_photo_du_milieu": "1773410434869.jpg",
      "Prenez_une_photo_du_e_d_part_du_transect": "1773410444225.jpg",
      "subdivision1": "C",
      "subdivision2": "Cb",
      "subdivision3": "Cb1",
      "subdivision4": "Cb1a",
      "Commentaire_ou_remarque_sur_le_milieu": "entropis\u00e9 (pi\u00e9tons et cycles)",
      "Transect_code": "202603131502GLB",
      "Vitesse_du_vent_km_h": "1.0",
      "Temp_rature_l_ombre_C": "22.0",
      "Hauteur_de_la_strate_herbac_e_": "35.0",
      "Pente": "0.0",
      "Exposition": "0.0",
      "Le_transect_est_il_r_s_depuis_un_chemin_": "non",
      "Point_de_d_part": "43.615013 1.4819142 187.10000610351562 59.921",
      "Point_d_arriv_e": "43.6151193 1.4825522 187.00001525878906 3.79",
      "Prenez_une_photo_du_arriv_e_du_transect": "1773411933980.jpg",
      "Distance_totale_parcourue_m": "17",
      "Quel_type_d_appareil_o_avez_vous_utilisez": "reflex_ou_hybride_sans_objectif_macro",
      "Remarque_ou_commentaire": "first transect!!",
      "__version__": "vomChPkx3JLXdErzdUjMYd",
      "meta/instanceID": "uuid:c2983a5e-fd4c-4032-9b07-50d3e0b8db5f",
      "_xform_id_string": "a3kVqAFEJwnHFcFc7PpWj4",
      "_uuid": "c2983a5e-fd4c-4032-9b07-50d3e0b8db5f",
      "meta/rootUuid": "uuid:c2983a5e-fd4c-4032-9b07-50d3e0b8db5f",
      "_attachments": [
        {
          "download_url": "https://kf.kobotoolbox.org/api/v2/assets/a3kVqAFEJwnHFcFc7PpWj4/data/709547383/attachments/attCggjgfL2KjQjQPQTvFhae/",
          "mimetype": "image/jpeg",
          "filename": "martin_galli/attachments/5341d22cd4644be5b131cc5335a68982/c2983a5e-fd4c-4032-9b07-50d3e0b8db5f/1773411933980.jpg",
          "media_file_basename": "1773411933980.jpg",
          "uid": "attCggjgfL2KjQjQPQTvFhae",
          "is_deleted": false,
          "download_large_url": "https://kf.kobotoolbox.org/api/v2/assets/a3kVqAFEJwnHFcFc7PpWj4/data/709547383/attachments/attCggjgfL2KjQjQPQTvFhae/large/",
          "download_medium_url": "https://kf.kobotoolbox.org/api/v2/assets/a3kVqAFEJwnHFcFc7PpWj4/data/709547383/attachments/attCggjgfL2KjQjQPQTvFhae/medium/",
          "download_small_url": "https://kf.kobotoolbox.org/api/v2/assets/a3kVqAFEJwnHFcFc7PpWj4/data/709547383/attachments/attCggjgfL2KjQjQPQTvFhae/small/",
          "question_xpath": "Prenez_une_photo_du_arriv_e_du_transect"
        },
        {
          "download_url": "https://kf.kobotoolbox.org/api/v2/assets/a3kVqAFEJwnHFcFc7PpWj4/data/709547383/attachments/attdi9jiR9p6zCDGP6pN9DLj/",
          "mimetype": "image/jpeg",
          "filename": "martin_galli/attachments/5341d22cd4644be5b131cc5335a68982/c2983a5e-fd4c-4032-9b07-50d3e0b8db5f/1773410444225.jpg",
          "media_file_basename": "1773410444225.jpg",
          "uid": "attdi9jiR9p6zCDGP6pN9DLj",
          "is_deleted": false,
          "download_large_url": "https://kf.kobotoolbox.org/api/v2/assets/a3kVqAFEJwnHFcFc7PpWj4/data/709547383/attachments/attdi9jiR9p6zCDGP6pN9DLj/large/",
          "download_medium_url": "https://kf.kobotoolbox.org/api/v2/assets/a3kVqAFEJwnHFcFc7PpWj4/data/709547383/attachments/attdi9jiR9p6zCDGP6pN9DLj/medium/",
          "download_small_url": "https://kf.kobotoolbox.org/api/v2/assets/a3kVqAFEJwnHFcFc7PpWj4/data/709547383/attachments/attdi9jiR9p6zCDGP6pN9DLj/small/",
          "question_xpath": "Prenez_une_photo_du_e_d_part_du_transect"
        },
        {
          "download_url": "https://kf.kobotoolbox.org/api/v2/assets/a3kVqAFEJwnHFcFc7PpWj4/data/709547383/attachments/attfu4PHEnbiEPbjV6MfxViX/",
          "mimetype": "image/jpeg",
          "filename": "martin_galli/attachments/5341d22cd4644be5b131cc5335a68982/c2983a5e-fd4c-4032-9b07-50d3e0b8db5f/1773410434869.jpg",
          "media_file_basename": "1773410434869.jpg",
          "uid": "attfu4PHEnbiEPbjV6MfxViX",
          "is_deleted": false,
          "download_large_url": "https://kf.kobotoolbox.org/api/v2/assets/a3kVqAFEJwnHFcFc7PpWj4/data/709547383/attachments/attfu4PHEnbiEPbjV6MfxViX/large/",
          "download_medium_url": "https://kf.kobotoolbox.org/api/v2/assets/a3kVqAFEJwnHFcFc7PpWj4/data/709547383/attachments/attfu4PHEnbiEPbjV6MfxViX/medium/",
          "download_small_url": "https://kf.kobotoolbox.org/api/v2/assets/a3kVqAFEJwnHFcFc7PpWj4/data/709547383/attachments/attfu4PHEnbiEPbjV6MfxViX/small/",
          "question_xpath": "Prenez_une_photo_du_milieu"
        }
      ],
      "_status": "submitted_via_web",
      "_geolocation": [
        43.615013,
        1.4819142
      ],
      "_submission_time": "2026-03-28T13:55:19",
      "_tags": [],
      "_notes": [],
      "_validation_status": {},
      "_submitted_by": "gwennlbh"
    },
    {
      "_id": 570002381,
      "formhub/uuid": "5341d22cd4644be5b131cc5335a68982",
      "start": "2025-08-31T12:06:40.870+02:00",
      "end": "2025-08-31T12:32:47.120+02:00",
      "username": "elodie_massol",
      "Bonjour_Pour_r_ali_tualiser_votre_relev": "2025-08-31T12:06:00.000+02:00",
      "Code_projet": "wildnet",
      "Code_du_site": "It34-1O",
      "Prenez_une_photo_du_milieu": "1756634821816.jpg",
      "Prenez_une_photo_du_e_d_part_du_transect": "1756634831764.jpg",
      "subdivision1": "C",
      "subdivision2": "Ca",
      "subdivision3": "Ca2",
      "subdivision4": "Ca2b",
      "Commentaire_ou_remarque_sur_le_milieu": "Fauch\u00e9e r\u00e9cemment ",
      "Transect_code": "202508311210EM",
      "Vitesse_du_vent_km_h": "1.0",
      "Temp_rature_l_ombre_C": "21.0",
      "Hauteur_de_la_strate_herbac_e_": "25.0",
      "Pente": "1.0",
      "Exposition": "268.0",
      "Le_transect_est_il_r_s_depuis_un_chemin_": "non",
      "Point_de_d_part": "43.1382483 1.0431434 448.4 2.6",
      "Point_d_arriv_e": "43.1384004 1.0429629 454.09999999999997 3.6",
      "Prenez_une_photo_du_arriv_e_du_transect": "1756636339008.jpg",
      "Distance_totale_parcourue_m": "20",
      "Quel_type_d_appareil_o_avez_vous_utilisez": "reflex_ou_hybride_avec_objectif_macro_et",
      "Remarque_ou_commentaire": "Hauteur strate herbac\u00e9e : 21, 18, 31, 25",
      "__version__": "vomChPkx3JLXdErzdUjMYd",
      "meta/instanceID": "uuid:e4694ca4-c76e-42a0-b955-c953e850c145",
      "_xform_id_string": "a3kVqAFEJwnHFcFc7PpWj4",
      "_uuid": "e4694ca4-c76e-42a0-b955-c953e850c145",
      "meta/rootUuid": "uuid:e4694ca4-c76e-42a0-b955-c953e850c145",
      "_attachments": [
        {
          "download_url": "https://kf.kobotoolbox.org/api/v2/assets/a3kVqAFEJwnHFcFc7PpWj4/data/570002381/attachments/atteHVLC5quGF4gGmfhdt9fN/",
          "mimetype": "image/jpeg",
          "filename": "martin_galli/attachments/5341d22cd4644be5b131cc5335a68982/e4694ca4-c76e-42a0-b955-c953e850c145/1756636339008.jpg",
          "media_file_basename": "1756636339008.jpg",
          "uid": "atteHVLC5quGF4gGmfhdt9fN",
          "is_deleted": false,
          "download_large_url": "https://kf.kobotoolbox.org/api/v2/assets/a3kVqAFEJwnHFcFc7PpWj4/data/570002381/attachments/atteHVLC5quGF4gGmfhdt9fN/large/",
          "download_medium_url": "https://kf.kobotoolbox.org/api/v2/assets/a3kVqAFEJwnHFcFc7PpWj4/data/570002381/attachments/atteHVLC5quGF4gGmfhdt9fN/medium/",
          "download_small_url": "https://kf.kobotoolbox.org/api/v2/assets/a3kVqAFEJwnHFcFc7PpWj4/data/570002381/attachments/atteHVLC5quGF4gGmfhdt9fN/small/",
          "question_xpath": "Prenez_une_photo_du_arriv_e_du_transect"
        },
        {
          "download_url": "https://kf.kobotoolbox.org/api/v2/assets/a3kVqAFEJwnHFcFc7PpWj4/data/570002381/attachments/attfra8EaMKTbtiydkW4mEKY/",
          "mimetype": "image/jpeg",
          "filename": "martin_galli/attachments/5341d22cd4644be5b131cc5335a68982/e4694ca4-c76e-42a0-b955-c953e850c145/1756634831764.jpg",
          "media_file_basename": "1756634831764.jpg",
          "uid": "attfra8EaMKTbtiydkW4mEKY",
          "is_deleted": false,
          "download_large_url": "https://kf.kobotoolbox.org/api/v2/assets/a3kVqAFEJwnHFcFc7PpWj4/data/570002381/attachments/attfra8EaMKTbtiydkW4mEKY/large/",
          "download_medium_url": "https://kf.kobotoolbox.org/api/v2/assets/a3kVqAFEJwnHFcFc7PpWj4/data/570002381/attachments/attfra8EaMKTbtiydkW4mEKY/medium/",
          "download_small_url": "https://kf.kobotoolbox.org/api/v2/assets/a3kVqAFEJwnHFcFc7PpWj4/data/570002381/attachments/attfra8EaMKTbtiydkW4mEKY/small/",
          "question_xpath": "Prenez_une_photo_du_e_d_part_du_transect"
        },
        {
          "download_url": "https://kf.kobotoolbox.org/api/v2/assets/a3kVqAFEJwnHFcFc7PpWj4/data/570002381/attachments/attyeXQxumh3fV8se76DMJua/",
          "mimetype": "image/jpeg",
          "filename": "martin_galli/attachments/5341d22cd4644be5b131cc5335a68982/e4694ca4-c76e-42a0-b955-c953e850c145/1756634821816.jpg",
          "media_file_basename": "1756634821816.jpg",
          "uid": "attyeXQxumh3fV8se76DMJua",
          "is_deleted": false,
          "download_large_url": "https://kf.kobotoolbox.org/api/v2/assets/a3kVqAFEJwnHFcFc7PpWj4/data/570002381/attachments/attyeXQxumh3fV8se76DMJua/large/",
          "download_medium_url": "https://kf.kobotoolbox.org/api/v2/assets/a3kVqAFEJwnHFcFc7PpWj4/data/570002381/attachments/attyeXQxumh3fV8se76DMJua/medium/",
          "download_small_url": "https://kf.kobotoolbox.org/api/v2/assets/a3kVqAFEJwnHFcFc7PpWj4/data/570002381/attachments/attyeXQxumh3fV8se76DMJua/small/",
          "question_xpath": "Prenez_une_photo_du_milieu"
        }
      ],
      "_status": "submitted_via_web",
      "_geolocation": [
        43.1382483,
        1.0431434
      ],
      "_submission_time": "2025-09-30T11:16:31",
      "_tags": [],
      "_notes": [],
      "_validation_status": {},
      "_submitted_by": "elodie_massol"
    },
    {
      "_id": 569513024,
      "formhub/uuid": "5341d22cd4644be5b131cc5335a68982",
      "start": "2025-08-31T11:22:29.315+02:00",
      "end": "2025-08-31T11:48:41.837+02:00",
      "username": "elodie_massol",
      "Bonjour_Pour_r_ali_tualiser_votre_relev": "2025-08-31T11:22:00.000+02:00",
      "Code_projet": "wildnet",
      "Code_du_site": "It34-1F",
      "Prenez_une_photo_du_milieu": "1756632178147.jpg",
      "Prenez_une_photo_du_e_d_part_du_transect": "1756632187885.jpg",
      "subdivision1": "C",
      "subdivision2": "Ca",
      "subdivision3": "Ca4",
      "subdivision4": "Ca4a",
      "Transect_code": "202508311125EM",
      "Vitesse_du_vent_km_h": "2.0",
      "Temp_rature_l_ombre_C": "19.0",
      "Hauteur_de_la_strate_herbac_e_": "50.0",
      "Pente": "2.0",
      "Exposition": "230.0",
      "Le_transect_est_il_r_s_depuis_un_chemin_": "non",
      "Point_de_d_part": "43.1395648 1.0436965 507.0 3.05",
      "Point_d_arriv_e": "43.1396583 1.0435083 488.3 2.9",
      "Prenez_une_photo_du_arriv_e_du_transect": "1756633673279.jpg",
      "Distance_totale_parcourue_m": "20",
      "Quel_type_d_appareil_o_avez_vous_utilisez": "reflex_ou_hybride_avec_objectif_macro_et",
      "Remarque_ou_commentaire": "Hauteur strate herbac\u00e9e : 38, 47, 61, 44",
      "__version__": "vomChPkx3JLXdErzdUjMYd",
      "meta/instanceID": "uuid:1d72fd7b-573f-464e-a4da-57c73804f09e",
      "_xform_id_string": "a3kVqAFEJwnHFcFc7PpWj4",
      "_uuid": "1d72fd7b-573f-464e-a4da-57c73804f09e",
      "meta/rootUuid": "uuid:1d72fd7b-573f-464e-a4da-57c73804f09e",
      "_attachments": [
        {
          "download_url": "https://kf.kobotoolbox.org/api/v2/assets/a3kVqAFEJwnHFcFc7PpWj4/data/569513024/attachments/attrYojDmV7zVs7coCTDzfSQ/",
          "mimetype": "image/jpeg",
          "filename": "martin_galli/attachments/5341d22cd4644be5b131cc5335a68982/1d72fd7b-573f-464e-a4da-57c73804f09e/1756633673279.jpg",
          "media_file_basename": "1756633673279.jpg",
          "uid": "attrYojDmV7zVs7coCTDzfSQ",
          "is_deleted": false,
          "download_large_url": "https://kf.kobotoolbox.org/api/v2/assets/a3kVqAFEJwnHFcFc7PpWj4/data/569513024/attachments/attrYojDmV7zVs7coCTDzfSQ/large/",
          "download_medium_url": "https://kf.kobotoolbox.org/api/v2/assets/a3kVqAFEJwnHFcFc7PpWj4/data/569513024/attachments/attrYojDmV7zVs7coCTDzfSQ/medium/",
          "download_small_url": "https://kf.kobotoolbox.org/api/v2/assets/a3kVqAFEJwnHFcFc7PpWj4/data/569513024/attachments/attrYojDmV7zVs7coCTDzfSQ/small/",
          "question_xpath": "Prenez_une_photo_du_arriv_e_du_transect"
        },
        {
          "download_url": "https://kf.kobotoolbox.org/api/v2/assets/a3kVqAFEJwnHFcFc7PpWj4/data/569513024/attachments/attKaKksdf3NYZEcgwQiW5X4/",
          "mimetype": "image/jpeg",
          "filename": "martin_galli/attachments/5341d22cd4644be5b131cc5335a68982/1d72fd7b-573f-464e-a4da-57c73804f09e/1756632187885.jpg",
          "media_file_basename": "1756632187885.jpg",
          "uid": "attKaKksdf3NYZEcgwQiW5X4",
          "is_deleted": false,
          "download_large_url": "https://kf.kobotoolbox.org/api/v2/assets/a3kVqAFEJwnHFcFc7PpWj4/data/569513024/attachments/attKaKksdf3NYZEcgwQiW5X4/large/",
          "download_medium_url": "https://kf.kobotoolbox.org/api/v2/assets/a3kVqAFEJwnHFcFc7PpWj4/data/569513024/attachments/attKaKksdf3NYZEcgwQiW5X4/medium/",
          "download_small_url": "https://kf.kobotoolbox.org/api/v2/assets/a3kVqAFEJwnHFcFc7PpWj4/data/569513024/attachments/attKaKksdf3NYZEcgwQiW5X4/small/",
          "question_xpath": "Prenez_une_photo_du_e_d_part_du_transect"
        },
        {
          "download_url": "https://kf.kobotoolbox.org/api/v2/assets/a3kVqAFEJwnHFcFc7PpWj4/data/569513024/attachments/attjr2wSdDm429jRnXaiqwVS/",
          "mimetype": "image/jpeg",
          "filename": "martin_galli/attachments/5341d22cd4644be5b131cc5335a68982/1d72fd7b-573f-464e-a4da-57c73804f09e/1756632178147.jpg",
          "media_file_basename": "1756632178147.jpg",
          "uid": "attjr2wSdDm429jRnXaiqwVS",
          "is_deleted": false,
          "download_large_url": "https://kf.kobotoolbox.org/api/v2/assets/a3kVqAFEJwnHFcFc7PpWj4/data/569513024/attachments/attjr2wSdDm429jRnXaiqwVS/large/",
          "download_medium_url": "https://kf.kobotoolbox.org/api/v2/assets/a3kVqAFEJwnHFcFc7PpWj4/data/569513024/attachments/attjr2wSdDm429jRnXaiqwVS/medium/",
          "download_small_url": "https://kf.kobotoolbox.org/api/v2/assets/a3kVqAFEJwnHFcFc7PpWj4/data/569513024/attachments/attjr2wSdDm429jRnXaiqwVS/small/",
          "question_xpath": "Prenez_une_photo_du_milieu"
        }
      ],
      "_status": "submitted_via_web",
      "_geolocation": [
        43.1395648,
        1.0436965
      ],
      "_submission_time": "2025-09-29T17:17:21",
      "_tags": [],
      "_notes": [],
      "_validation_status": {},
      "_submitted_by": "elodie_massol"
    },
    {
      "_id": 569479409,
      "formhub/uuid": "5341d22cd4644be5b131cc5335a68982",
      "start": "2025-09-07T10:51:26.318+02:00",
      "end": "2025-09-07T11:16:06.040+02:00",
      "username": "elodie_massol",
      "Bonjour_Pour_r_ali_tualiser_votre_relev": "2025-09-07T10:51:00.000+02:00",
      "Code_projet": "wildnet",
      "Code_du_site": "It22-5O ",
      "Prenez_une_photo_du_milieu": "1757235106805.jpg",
      "Prenez_une_photo_du_e_d_part_du_transect": "1757235113171.jpg",
      "subdivision1": "C",
      "subdivision2": "Ca",
      "subdivision3": "Ca3",
      "subdivision4": "Ca3a",
      "Transect_code": "202509071053EM",
      "Vitesse_du_vent_km_h": "1.0",
      "Temp_rature_l_ombre_C": "24.0",
      "Hauteur_de_la_strate_herbac_e_": "70.0",
      "Pente": "8.0",
      "Exposition": "120.0",
      "Le_transect_est_il_r_s_depuis_un_chemin_": "non",
      "Point_de_d_part": "42.8184317 1.586925 643.5999999999999 1.38",
      "Point_d_arriv_e": "42.8185767 1.5869883 641.1999999999999 1.466",
      "Prenez_une_photo_du_arriv_e_du_transect": "1757236515464.jpg",
      "Distance_totale_parcourue_m": "20",
      "Quel_type_d_appareil_o_avez_vous_utilisez": "reflex_ou_hybride_avec_objectif_macro_et",
      "Remarque_ou_commentaire": "Hauteur strate herbac\u00e9e : 75, 48, 92, 63",
      "__version__": "vomChPkx3JLXdErzdUjMYd",
      "meta/instanceID": "uuid:28850ec6-6932-400e-9739-21958ab0e15a",
      "_xform_id_string": "a3kVqAFEJwnHFcFc7PpWj4",
      "_uuid": "28850ec6-6932-400e-9739-21958ab0e15a",
      "meta/rootUuid": "uuid:28850ec6-6932-400e-9739-21958ab0e15a",
      "_attachments": [
        {
          "download_url": "https://kf.kobotoolbox.org/api/v2/assets/a3kVqAFEJwnHFcFc7PpWj4/data/569479409/attachments/attjvy4FT8monLwtCiYHiemE/",
          "mimetype": "image/jpeg",
          "filename": "martin_galli/attachments/5341d22cd4644be5b131cc5335a68982/28850ec6-6932-400e-9739-21958ab0e15a/1757236515464.jpg",
          "media_file_basename": "1757236515464.jpg",
          "uid": "attjvy4FT8monLwtCiYHiemE",
          "is_deleted": false,
          "download_large_url": "https://kf.kobotoolbox.org/api/v2/assets/a3kVqAFEJwnHFcFc7PpWj4/data/569479409/attachments/attjvy4FT8monLwtCiYHiemE/large/",
          "download_medium_url": "https://kf.kobotoolbox.org/api/v2/assets/a3kVqAFEJwnHFcFc7PpWj4/data/569479409/attachments/attjvy4FT8monLwtCiYHiemE/medium/",
          "download_small_url": "https://kf.kobotoolbox.org/api/v2/assets/a3kVqAFEJwnHFcFc7PpWj4/data/569479409/attachments/attjvy4FT8monLwtCiYHiemE/small/",
          "question_xpath": "Prenez_une_photo_du_arriv_e_du_transect"
        },
        {
          "download_url": "https://kf.kobotoolbox.org/api/v2/assets/a3kVqAFEJwnHFcFc7PpWj4/data/569479409/attachments/attBYHDGbQHTzDUZSkCNKPfs/",
          "mimetype": "image/jpeg",
          "filename": "martin_galli/attachments/5341d22cd4644be5b131cc5335a68982/28850ec6-6932-400e-9739-21958ab0e15a/1757235113171.jpg",
          "media_file_basename": "1757235113171.jpg",
          "uid": "attBYHDGbQHTzDUZSkCNKPfs",
          "is_deleted": false,
          "download_large_url": "https://kf.kobotoolbox.org/api/v2/assets/a3kVqAFEJwnHFcFc7PpWj4/data/569479409/attachments/attBYHDGbQHTzDUZSkCNKPfs/large/",
          "download_medium_url": "https://kf.kobotoolbox.org/api/v2/assets/a3kVqAFEJwnHFcFc7PpWj4/data/569479409/attachments/attBYHDGbQHTzDUZSkCNKPfs/medium/",
          "download_small_url": "https://kf.kobotoolbox.org/api/v2/assets/a3kVqAFEJwnHFcFc7PpWj4/data/569479409/attachments/attBYHDGbQHTzDUZSkCNKPfs/small/",
          "question_xpath": "Prenez_une_photo_du_e_d_part_du_transect"
        },
        {
          "download_url": "https://kf.kobotoolbox.org/api/v2/assets/a3kVqAFEJwnHFcFc7PpWj4/data/569479409/attachments/attx5kS5LLD6RrRuHr89Dwe5/",
          "mimetype": "image/jpeg",
          "filename": "martin_galli/attachments/5341d22cd4644be5b131cc5335a68982/28850ec6-6932-400e-9739-21958ab0e15a/1757235106805.jpg",
          "media_file_basename": "1757235106805.jpg",
          "uid": "attx5kS5LLD6RrRuHr89Dwe5",
          "is_deleted": false,
          "download_large_url": "https://kf.kobotoolbox.org/api/v2/assets/a3kVqAFEJwnHFcFc7PpWj4/data/569479409/attachments/attx5kS5LLD6RrRuHr89Dwe5/large/",
          "download_medium_url": "https://kf.kobotoolbox.org/api/v2/assets/a3kVqAFEJwnHFcFc7PpWj4/data/569479409/attachments/attx5kS5LLD6RrRuHr89Dwe5/medium/",
          "download_small_url": "https://kf.kobotoolbox.org/api/v2/assets/a3kVqAFEJwnHFcFc7PpWj4/data/569479409/attachments/attx5kS5LLD6RrRuHr89Dwe5/small/",
          "question_xpath": "Prenez_une_photo_du_milieu"
        }
      ],
      "_status": "submitted_via_web",
      "_geolocation": [
        42.8184317,
        1.586925
      ],
      "_submission_time": "2025-09-29T16:33:31",
      "_tags": [],
      "_notes": [],
      "_validation_status": {},
      "_submitted_by": "elodie_massol"
    },
    {
      "_id": 569469537,
      "formhub/uuid": "5341d22cd4644be5b131cc5335a68982",
      "start": "2025-09-07T11:40:24.113+02:00",
      "end": "2025-09-07T12:05:30.778+02:00",
      "username": "elodie_massol",
      "Bonjour_Pour_r_ali_tualiser_votre_relev": "2025-09-07T11:40:00.000+02:00",
      "Code_projet": "wildnet",
      "Code_du_site": "It22-5F ",
      "Prenez_une_photo_du_milieu": "1757238047650.jpg",
      "Prenez_une_photo_du_e_d_part_du_transect": "1757238055477.jpg",
      "subdivision1": "C",
      "subdivision2": "Ca",
      "subdivision3": "Ca3",
      "subdivision4": "Ca3a",
      "Commentaire_ou_remarque_sur_le_milieu": "Buissons \u00e9pars ",
      "Transect_code": "202509071142EM",
      "Vitesse_du_vent_km_h": "1.0",
      "Temp_rature_l_ombre_C": "25.0",
      "Hauteur_de_la_strate_herbac_e_": "70.0",
      "Pente": "20.0",
      "Exposition": "168.0",
      "Le_transect_est_il_r_s_depuis_un_chemin_": "non",
      "Point_de_d_part": "42.8188633 1.585425 699.5999999999999 1.413",
      "Point_d_arriv_e": "42.818885 1.58513 700.0999999999999 1.416",
      "Prenez_une_photo_du_arriv_e_du_transect": "1757239474480.jpg",
      "Distance_totale_parcourue_m": "20",
      "Quel_type_d_appareil_o_avez_vous_utilisez": "reflex_ou_hybride_avec_objectif_macro_et",
      "Remarque_ou_commentaire": "Hauteur strate herbac\u00e9e : 93, 70, 38, 88",
      "__version__": "vomChPkx3JLXdErzdUjMYd",
      "meta/instanceID": "uuid:41af6ab1-b9f0-4d20-8a8e-2ea18415f103",
      "_xform_id_string": "a3kVqAFEJwnHFcFc7PpWj4",
      "_uuid": "41af6ab1-b9f0-4d20-8a8e-2ea18415f103",
      "meta/rootUuid": "uuid:41af6ab1-b9f0-4d20-8a8e-2ea18415f103",
      "_attachments": [
        {
          "download_url": "https://kf.kobotoolbox.org/api/v2/assets/a3kVqAFEJwnHFcFc7PpWj4/data/569469537/attachments/attJMejEUhiU4Mtq3mKJrzCW/",
          "mimetype": "image/jpeg",
          "filename": "martin_galli/attachments/5341d22cd4644be5b131cc5335a68982/41af6ab1-b9f0-4d20-8a8e-2ea18415f103/1757239474480.jpg",
          "media_file_basename": "1757239474480.jpg",
          "uid": "attJMejEUhiU4Mtq3mKJrzCW",
          "is_deleted": false,
          "download_large_url": "https://kf.kobotoolbox.org/api/v2/assets/a3kVqAFEJwnHFcFc7PpWj4/data/569469537/attachments/attJMejEUhiU4Mtq3mKJrzCW/large/",
          "download_medium_url": "https://kf.kobotoolbox.org/api/v2/assets/a3kVqAFEJwnHFcFc7PpWj4/data/569469537/attachments/attJMejEUhiU4Mtq3mKJrzCW/medium/",
          "download_small_url": "https://kf.kobotoolbox.org/api/v2/assets/a3kVqAFEJwnHFcFc7PpWj4/data/569469537/attachments/attJMejEUhiU4Mtq3mKJrzCW/small/",
          "question_xpath": "Prenez_une_photo_du_arriv_e_du_transect"
        },
        {
          "download_url": "https://kf.kobotoolbox.org/api/v2/assets/a3kVqAFEJwnHFcFc7PpWj4/data/569469537/attachments/attXp4NEZD4SQ39znvhgXU8T/",
          "mimetype": "image/jpeg",
          "filename": "martin_galli/attachments/5341d22cd4644be5b131cc5335a68982/41af6ab1-b9f0-4d20-8a8e-2ea18415f103/1757238055477.jpg",
          "media_file_basename": "1757238055477.jpg",
          "uid": "attXp4NEZD4SQ39znvhgXU8T",
          "is_deleted": false,
          "download_large_url": "https://kf.kobotoolbox.org/api/v2/assets/a3kVqAFEJwnHFcFc7PpWj4/data/569469537/attachments/attXp4NEZD4SQ39znvhgXU8T/large/",
          "download_medium_url": "https://kf.kobotoolbox.org/api/v2/assets/a3kVqAFEJwnHFcFc7PpWj4/data/569469537/attachments/attXp4NEZD4SQ39znvhgXU8T/medium/",
          "download_small_url": "https://kf.kobotoolbox.org/api/v2/assets/a3kVqAFEJwnHFcFc7PpWj4/data/569469537/attachments/attXp4NEZD4SQ39znvhgXU8T/small/",
          "question_xpath": "Prenez_une_photo_du_e_d_part_du_transect"
        },
        {
          "download_url": "https://kf.kobotoolbox.org/api/v2/assets/a3kVqAFEJwnHFcFc7PpWj4/data/569469537/attachments/attFW24ypT7yoQ3SbWTPxE5i/",
          "mimetype": "image/jpeg",
          "filename": "martin_galli/attachments/5341d22cd4644be5b131cc5335a68982/41af6ab1-b9f0-4d20-8a8e-2ea18415f103/1757238047650.jpg",
          "media_file_basename": "1757238047650.jpg",
          "uid": "attFW24ypT7yoQ3SbWTPxE5i",
          "is_deleted": false,
          "download_large_url": "https://kf.kobotoolbox.org/api/v2/assets/a3kVqAFEJwnHFcFc7PpWj4/data/569469537/attachments/attFW24ypT7yoQ3SbWTPxE5i/large/",
          "download_medium_url": "https://kf.kobotoolbox.org/api/v2/assets/a3kVqAFEJwnHFcFc7PpWj4/data/569469537/attachments/attFW24ypT7yoQ3SbWTPxE5i/medium/",
          "download_small_url": "https://kf.kobotoolbox.org/api/v2/assets/a3kVqAFEJwnHFcFc7PpWj4/data/569469537/attachments/attFW24ypT7yoQ3SbWTPxE5i/small/",
          "question_xpath": "Prenez_une_photo_du_milieu"
        }
      ],
      "_status": "submitted_via_web",
      "_geolocation": [
        42.8188633,
        1.585425
      ],
      "_submission_time": "2025-09-29T16:20:58",
      "_tags": [],
      "_notes": [],
      "_validation_status": {},
      "_submitted_by": "elodie_massol"
    }
  ]
}
